{
  "db": {
    "name": "db",
    "connector": "memory"
  },
  "mongods": {
    "host": "192.168.99.100",
    "port": 32768,
    "database": "user-access",
    "name": "mongods",
    "server": {
      "auto_reconnect": true,
      "reconnectTries": 100,
      "reconnectInterval": 1000
    },
    "connector": "mongodb"
  }
}
